         run       event       nTopo   nIdTracks  nTauTracks       nTaus      nMuons       nElec   nTrueElec   nFakeElec       nPhot   nTruePhot   nFakePhot
      327265   186524665         510         420           0           0           2           2           0           2          16           0          16
      327265   186525031         522         439           0           0           1           2           0           2           8           0           8
      327265   186542447         419         296           0           0           0           2           0           2           7           0           7
      327265   186543405         511         319           0           0           0           2           0           2          11           0          11
      327265   186548387         653         514           0           0           0           4           0           4          20           0          20
